 27
** Atomic data from version 5.2 of the CHIANTI database **
%Observed energy levels: Edlen, 1984, Phys.Scripta, 30, 135 
%Theoretical energy levels (1-15): Zhang, Sampson, ADNDT, 1999, 72, 153
%Theoretical energy levels (16-72): Bhatia,A.K., Seely,J.F., Feldman,U., 1989, ADNDT,43, 99.
% produced as part of the Arcetri/Cambridge/NRL 'CHIANTI' atomic data base collaboration
% 
% G. Del Zanna, May 2001.
%Experimental energy levels (1 - 15): Edlen, 1984, Phys.Scripta, 30, 135
%Theoretical energy levels (16 - 72): Bhatia, A.K., Seely, J.F., Feldman, U., 1989, ADNDT 43, 99
%A values for transitions indicated within the ground configuration: Merkelis et al., 1999, Physica Scripta 59, 122
%A values for allowed n=2 transitions: Zhang, Sampson, ADNDT, 1999, 72, 153
%A values for non-allowed n=2 transitions: Merkelis et al., 1999, Physica Scripta 59, 122
%A and gf values for transitions  from n=3 levels (16-72): Bhatia, A.K., Seely, J.F., Feldman, U., 1989, ADNDT 43, 99
%gf values for transitions between the (1 - 15) levels: Zhang, Sampson, ADNDT, 1999, 72, 153
%produced as part of the Arcetri/Cambridge/NRL atomic data base collaboration
%
% G. Del Zanna, May 2001.

%filename: zn_24.splups
%oscillator strengths (levels 1 - 15): Zhang, Sampson, 1999, ADNDT, 72, 153
%oscillator strengths (levels 16 - 72 only from the ground): Bhatia,A.K., Seely,J.F., Feldman,U., 1989, ADNDT, 43, 99
% collision strengths (levels 1 - 15): Zhang, Sampson, 1999, ADNDT, 72, 153
% Collision strengths (levels 16 - 72 only from the ground): Bhatia,A.K., Seely,J.F., Feldman,U., 1989, ADNDT, 43, 99
%Comment: the original collision strengths from Bhatia et al 1989 were calculated only at one single energy
%produced as part of the Arcetri/Cambridge/NRL 'CHIANTI' atomic data base collaboration
%
% G. Del Zanna, May 2001.
 5 23 0
  1  2s2.2p3 4S3/2
  2  2s2.2p3 2D3/2
  3  2s2.2p3 2D5/2
  4  2s2.2p3 2P1/2
  5  2s2.2p3 2P3/2
     100.0
     158.5
     251.2
     398.1
     631.0
    1000.0
    1584.9
    2511.9
    3981.1
    6309.6
   10000.0
   15848.9
   25118.9
   39810.7
   63095.8
  100000.0
  158489.2
  251188.7
  398107.1
  630957.6
 1000000.0
 1584892.5
 2511887.0
0
  1  2   3.54e-02
  0  0   3.54e-02
  0  0   3.54e-02
  0  0   3.54e-02
  0  0   3.54e-02
  0  0   3.54e-02
  0  0   3.54e-02
  0  0   3.54e-02
  0  0   3.54e-02
  0  0   3.54e-02
  0  0   3.54e-02
  0  0   3.54e-02
  0  0   3.54e-02
  0  0   3.54e-02
  0  0   3.53e-02
  0  0   3.53e-02
  0  0   3.52e-02
  0  0   3.50e-02
  0  0   3.48e-02
  0  0   3.44e-02
  0  0   3.38e-02
  0  0   3.30e-02
  0  0   3.17e-02
  1  3   3.55e-02
  0  0   3.55e-02
  0  0   3.55e-02
  0  0   3.55e-02
  0  0   3.55e-02
  0  0   3.55e-02
  0  0   3.55e-02
  0  0   3.55e-02
  0  0   3.55e-02
  0  0   3.55e-02
  0  0   3.55e-02
  0  0   3.55e-02
  0  0   3.55e-02
  0  0   3.54e-02
  0  0   3.54e-02
  0  0   3.53e-02
  0  0   3.52e-02
  0  0   3.51e-02
  0  0   3.49e-02
  0  0   3.45e-02
  0  0   3.40e-02
  0  0   3.32e-02
  0  0   3.20e-02
  1  4   9.73e-03
  0  0   9.73e-03
  0  0   9.73e-03
  0  0   9.73e-03
  0  0   9.73e-03
  0  0   9.73e-03
  0  0   9.73e-03
  0  0   9.72e-03
  0  0   9.72e-03
  0  0   9.72e-03
  0  0   9.72e-03
  0  0   9.72e-03
  0  0   9.71e-03
  0  0   9.71e-03
  0  0   9.69e-03
  0  0   9.68e-03
  0  0   9.65e-03
  0  0   9.60e-03
  0  0   9.53e-03
  0  0   9.42e-03
  0  0   9.25e-03
  0  0   9.00e-03
  0  0   8.62e-03
  1  5   5.08e-03
  0  0   5.08e-03
  0  0   5.08e-03
  0  0   5.08e-03
  0  0   5.08e-03
  0  0   5.08e-03
  0  0   5.08e-03
  0  0   5.08e-03
  0  0   5.07e-03
  0  0   5.07e-03
  0  0   5.07e-03
  0  0   5.07e-03
  0  0   5.07e-03
  0  0   5.06e-03
  0  0   5.06e-03
  0  0   5.04e-03
  0  0   5.03e-03
  0  0   5.00e-03
  0  0   4.95e-03
  0  0   4.88e-03
  0  0   4.77e-03
  0  0   4.60e-03
  0  0   4.36e-03
  2  3   4.03e-02
  0  0   4.03e-02
  0  0   4.03e-02
  0  0   4.03e-02
  0  0   4.03e-02
  0  0   4.03e-02
  0  0   4.03e-02
  0  0   4.03e-02
  0  0   4.03e-02
  0  0   4.03e-02
  0  0   4.03e-02
  0  0   4.03e-02
  0  0   4.03e-02
  0  0   4.02e-02
  0  0   4.02e-02
  0  0   4.01e-02
  0  0   4.00e-02
  0  0   3.99e-02
  0  0   3.96e-02
  0  0   3.92e-02
  0  0   3.86e-02
  0  0   3.77e-02
  0  0   3.63e-02
  2  4   1.42e-02
  0  0   1.42e-02
  0  0   1.42e-02
  0  0   1.42e-02
  0  0   1.42e-02
  0  0   1.42e-02
  0  0   1.42e-02
  0  0   1.42e-02
  0  0   1.42e-02
  0  0   1.42e-02
  0  0   1.42e-02
  0  0   1.42e-02
  0  0   1.42e-02
  0  0   1.42e-02
  0  0   1.42e-02
  0  0   1.42e-02
  0  0   1.42e-02
  0  0   1.42e-02
  0  0   1.42e-02
  0  0   1.42e-02
  0  0   1.41e-02
  0  0   1.41e-02
  0  0   1.40e-02
  2  5   2.23e-02
  0  0   2.23e-02
  0  0   2.23e-02
  0  0   2.23e-02
  0  0   2.23e-02
  0  0   2.23e-02
  0  0   2.23e-02
  0  0   2.23e-02
  0  0   2.23e-02
  0  0   2.23e-02
  0  0   2.23e-02
  0  0   2.23e-02
  0  0   2.23e-02
  0  0   2.23e-02
  0  0   2.22e-02
  0  0   2.22e-02
  0  0   2.22e-02
  0  0   2.21e-02
  0  0   2.19e-02
  0  0   2.17e-02
  0  0   2.14e-02
  0  0   2.08e-02
  0  0   2.01e-02
  3  4   1.68e-02
  0  0   1.68e-02
  0  0   1.68e-02
  0  0   1.68e-02
  0  0   1.68e-02
  0  0   1.68e-02
  0  0   1.68e-02
  0  0   1.68e-02
  0  0   1.68e-02
  0  0   1.68e-02
  0  0   1.68e-02
  0  0   1.68e-02
  0  0   1.68e-02
  0  0   1.68e-02
  0  0   1.67e-02
  0  0   1.67e-02
  0  0   1.67e-02
  0  0   1.67e-02
  0  0   1.67e-02
  0  0   1.66e-02
  0  0   1.65e-02
  0  0   1.64e-02
  0  0   1.62e-02
  3  5   4.07e-02
  0  0   4.07e-02
  0  0   4.07e-02
  0  0   4.07e-02
  0  0   4.07e-02
  0  0   4.07e-02
  0  0   4.07e-02
  0  0   4.07e-02
  0  0   4.07e-02
  0  0   4.07e-02
  0  0   4.07e-02
  0  0   4.07e-02
  0  0   4.06e-02
  0  0   4.06e-02
  0  0   4.06e-02
  0  0   4.06e-02
  0  0   4.06e-02
  0  0   4.05e-02
  0  0   4.04e-02
  0  0   4.03e-02
  0  0   4.01e-02
  0  0   3.98e-02
  0  0   3.93e-02
  4  5   1.55e-02
  0  0   1.55e-02
  0  0   1.55e-02
  0  0   1.55e-02
  0  0   1.55e-02
  0  0   1.55e-02
  0  0   1.55e-02
  0  0   1.55e-02
  0  0   1.55e-02
  0  0   1.55e-02
  0  0   1.55e-02
  0  0   1.55e-02
  0  0   1.55e-02
  0  0   1.55e-02
  0  0   1.54e-02
  0  0   1.54e-02
  0  0   1.54e-02
  0  0   1.53e-02
  0  0   1.52e-02
  0  0   1.51e-02
  0  0   1.49e-02
  0  0   1.46e-02
  0  0   1.42e-02
 0 0 0
  1  2   9.080e+04
  1  3   1.252e+04
  1  4   1.591e+05
  1  5   6.480e+04
  2  3   2.000e+03
  2  4   1.171e+04
  2  5   2.670e+05
  3  4   9.670e-01
  3  5   6.088e+04
  4  5   1.570e+04
  1  4        0.0
  2  4   187633.0
  3  6   253995.0
  4  2   356672.0
  5  4   500688.0
